@startuml Motor_SEQ

robust "Encoder" as E
robust "PID" as P
concise "Plan" as PL

@0
E is Processing
P is Idle
PL is Idle

@+100
E -> PL : URL
PL is Waiting
P is Processing

@+200
PL is Waiting
PL -> P@+50 : Resolve URL

@+100
E is Processing

@+300
E is Idle
@enduml